{
  "sections": {
    "main": {
      "type": "main-page",
      "disabled": true,
      "settings": {}
    },
    "1655386783c7343751": {
      "type": "featured-bg-banner",
      "settings": {
        "section_bg": "#000000",
        "section_height": "403px",
        "section_height_mob": "430px",
        "enable_bg_shape": true,
        "layout": "full-width",
        "text_align": "left",
        "enable_back": false,
        "back_link": "",
        "title": "Migrate to Shopify",
        "subtitle": "<p>Our expert team helps brands migrate to Shopify<\/p>",
        "content": "",
        "content_right": false,
        "btn_label": "Contact Us",
        "btn_link": "#",
        "color_title": "#ffffff",
        "color_subtitle": "#707061",
        "color_content": "#ffffff",
        "color_content_accent": "#cc9933",
        "color_button": "#ffffff"
      }
    },
    "165538888599f31cd7": {
      "type": "rich-text",
      "blocks": {
        "16553888856243a0cb-1": {
          "type": "text",
          "settings": {
            "text": "<p>We have re-platformed e-commerces previously running on Magento, WooCommerce, or PrestaShop. Shopify experts at Medito know that the proper planning & execution make a seamless migration. <\/p>",
            "align": "center",
            "f_size": 32
          }
        }
      },
      "block_order": [
        "16553888856243a0cb-1"
      ],
      "settings": {
        "ptop": 150,
        "pbottom": 0,
        "ptop_mob": 90,
        "pbottom_mob": 30,
        "align_text": "left",
        "narrow_column": true,
        "divider": false,
        "max_width": "",
        "m_left": "150px"
      }
    },
    "165538894854cc19b1": {
      "type": "featured-text-blocks",
      "blocks": {
        "00b75153-e967-4851-9149-6e27b115981c": {
          "type": "block",
          "settings": {
            "title": "Content & Data",
            "subtitle": "",
            "content": "<p>Our team will ensure that your current content and data are moved across without loss or disruption during the migration. Any existing pages, products, blog articles, and your previous customers and orders will be safe during the process. <\/p>",
            "extra_content": "",
            "btn_label": "",
            "btn_link": ""
          }
        },
        "d67a6dde-2e29-4c80-a173-f858e74e664e": {
          "type": "block",
          "settings": {
            "title": "Theme Design",
            "subtitle": "",
            "content": "<p>A fresh start on a new platform is a chance to develop a clean and up-to-date design. Whether you want to keep your existing theme, refresh it, or go for a completely new approach, our design team will help you achieve the right look for your brand’s identity. <\/p>",
            "extra_content": "",
            "btn_label": "",
            "btn_link": ""
          }
        },
        "64f8c22c-271e-48ae-bc91-f9b11ca1b7a4": {
          "type": "block",
          "settings": {
            "title": "SEO & URLs",
            "subtitle": "",
            "content": "<p>We understand the value of your Google presence. To ensure you keep all your SEO benefits when migrating to Shopify,  our team will export a complete sitemap of your website and create URL redirects to each relevant page on the new site.<\/p>",
            "extra_content": "",
            "btn_label": "",
            "btn_link": ""
          }
        },
        "e6176f77-7aef-42ad-9e5d-dbd3eeb9282d": {
          "type": "block",
          "settings": {
            "title": "Pre-launch Testing",
            "subtitle": "",
            "content": "<p>Before switching the plug and pointing your domain to Shopify, our team will inspect the entire website one last time, and we will ask you to perform a test order on your site, making sure everything is working perfectly.<\/p>",
            "extra_content": "",
            "btn_label": "",
            "btn_link": ""
          }
        }
      },
      "block_order": [
        "00b75153-e967-4851-9149-6e27b115981c",
        "d67a6dde-2e29-4c80-a173-f858e74e664e",
        "64f8c22c-271e-48ae-bc91-f9b11ca1b7a4",
        "e6176f77-7aef-42ad-9e5d-dbd3eeb9282d"
      ],
      "settings": {
        "ptop": 150,
        "pbottom": 150,
        "ptop_mob": 45,
        "pbottom_mob": 100,
        "title": "Migration  Components",
        "layout": "design-1",
        "btn_label": "",
        "btn_link": ""
      }
    },
    "1655389846bd00c4ab": {
      "type": "faq",
      "blocks": {
        "16553898462dc17a36-0": {
          "type": "question",
          "settings": {
            "title": "Do you create specific URL redirects for each product?",
            "text": "<p>Yes, we work hand in hand with a software company that will manage the data migration to ensure no orders are lost.<\/p>",
            "block_bg": "#ffffff",
            "color_number": "#cc9933",
            "color_title": "#000000",
            "color_text": "#707061"
          }
        },
        "16553898462dc17a36-1": {
          "type": "question",
          "settings": {
            "title": "Does Shopify support multilingual URLs?",
            "text": "<p>The native Shopify solution does not yet support multilingual URLs. However, we can use Shopify Apps such as Weglot that now offer the translation of the URL slugs.<\/p>",
            "block_bg": "#ffffff",
            "color_number": "#cc9933",
            "color_title": "#000000",
            "color_text": "#707061"
          }
        },
        "3adaeaa3-21d6-44b9-87a3-b830d7872e63": {
          "type": "question",
          "settings": {
            "title": "Do you migrate previous orders and customers to Shopify?",
            "text": "<p>Yes, we work hand in hand with a software company that will manage the data migration to ensure no orders are lost.<\/p>",
            "block_bg": "#ffffff",
            "color_number": "#cc9933",
            "color_title": "#000000",
            "color_text": "#707061"
          }
        },
        "335d9fbf-937b-432c-adaa-2a724921f417": {
          "type": "question",
          "settings": {
            "title": "What is the Shopify migration impact on SEO?",
            "text": "<p>When performed correctly, the impact on SEO is close to non-existing. Your store will have all their URLs redirected, the sitemap will be re-added, and any specific meta-titles & descriptions will be migrated.<\/p>",
            "block_bg": "#ffffff",
            "color_number": "#cc9933",
            "color_title": "#000000",
            "color_text": "#707061"
          }
        }
      },
      "block_order": [
        "16553898462dc17a36-0",
        "16553898462dc17a36-1",
        "3adaeaa3-21d6-44b9-87a3-b830d7872e63",
        "335d9fbf-937b-432c-adaa-2a724921f417"
      ],
      "settings": {
        "section_bg": "#f2f3ee",
        "ptop": 160,
        "pbottom": 150,
        "ptop_mob": 45,
        "pbottom_mob": 90,
        "title": "FAQs",
        "layout": "block"
      }
    },
    "16553909680869450a": {
      "type": "featured-image-blocks",
      "blocks": {
        "338473bb-72e7-4eea-a823-5afd6cae0545": {
          "type": "image",
          "settings": {
            "image": "shopify:\/\/shop_images\/29_2.png",
            "link": "",
            "title": "Filles a papa",
            "subtitle": "<p>Shopify Plus Custom theme & Development<\/p>"
          }
        },
        "077c3fa9-460e-4b19-b516-3de075703467": {
          "type": "image",
          "settings": {
            "image": "shopify:\/\/shop_images\/29_2.png",
            "link": "",
            "title": "Filles a papa",
            "subtitle": "<p>Shopify Plus Custom theme & Development<\/p>"
          }
        },
        "5995f564-bea4-4541-acdd-1997d5fc9cb1": {
          "type": "image",
          "settings": {
            "image": "shopify:\/\/shop_images\/29_2.png",
            "link": "",
            "title": "Filles a papa",
            "subtitle": "<p>Shopify Plus Custom theme & Development<\/p>"
          }
        },
        "df9c5584-ed93-41e8-8eaa-eb97fc6a6e73": {
          "type": "image",
          "settings": {
            "image": "shopify:\/\/shop_images\/29_2.png",
            "link": "",
            "title": "Filles a papa",
            "subtitle": "<p>Shopify Plus Custom theme & Development<\/p>"
          }
        }
      },
      "block_order": [
        "338473bb-72e7-4eea-a823-5afd6cae0545",
        "077c3fa9-460e-4b19-b516-3de075703467",
        "5995f564-bea4-4541-acdd-1997d5fc9cb1",
        "df9c5584-ed93-41e8-8eaa-eb97fc6a6e73"
      ],
      "settings": {
        "ptop": 150,
        "pbottom": 90,
        "ptop_mob": 90,
        "pbottom_mob": 45,
        "title": "Our Projects",
        "enable_overlay": false,
        "layout": "design-1",
        "btn_label": "View all projects",
        "btn_link": "#"
      }
    },
    "1655465503dd0b6d54": {
      "type": "featured-cta",
      "settings": {
        "section_bg": "#e3e4dd",
        "ptop": 45,
        "pbottom": 130,
        "ptop_mob": 45,
        "pbottom_mob": 45,
        "enable_overlap": false,
        "title": "Get Started",
        "desc": "<p>Lorem ipsum dolor sit amet, consectetur adipiscing elit. Fusce eget semper sapien, eget pretium diam. Vivamus lorem tellus, mattis eget mauris in, auctor volutpat ipsum. <\/p>",
        "btn_label": "",
        "btn_link": "#"
      }
    }
  },
  "order": [
    "main",
    "1655386783c7343751",
    "165538888599f31cd7",
    "165538894854cc19b1",
    "1655389846bd00c4ab",
    "16553909680869450a",
    "1655465503dd0b6d54"
  ]
}