{
  "sections": {
    "main": {
      "type": "main-page",
      "disabled": true,
      "settings": {}
    },
    "1655733085e4c555e1": {
      "type": "featured-bg-banner",
      "settings": {
        "section_bg": "#000000",
        "section_height": "340px",
        "section_height_mob": "430px",
        "enable_bg_shape": true,
        "layout": "full-width",
        "text_align": "left",
        "enable_back": false,
        "back_link": "",
        "title": "Shopify web agency",
        "subtitle": "<p>Shopify experts that provide excellent results<\/p>",
        "content": "<p><strong>#1 European Agency - TIA<\/strong><\/p><p>Top European Digital Agencies working with Shopify<\/p>",
        "content_right": true,
        "btn_label": "",
        "btn_link": "",
        "color_title": "#ffffff",
        "color_subtitle": "#707061",
        "color_content": "#ffffff",
        "color_content_accent": "#cc9933",
        "color_button": "#ffffff"
      }
    },
    "165574505451f53d15": {
      "type": "rich-text",
      "blocks": {
        "1655745054ed13e1d7-1": {
          "type": "text",
          "settings": {
            "text": "<p>Over 100 satisfied brands endorse our work in custom theme design and development. We have the expertise and tools to build anything from a simple store to a fully custom one.<\/p>",
            "align": "center",
            "f_size": 32
          }
        }
      },
      "block_order": [
        "1655745054ed13e1d7-1"
      ],
      "settings": {
        "ptop": 150,
        "pbottom": 45,
        "ptop_mob": 90,
        "pbottom_mob": 0,
        "align_text": "left",
        "narrow_column": false,
        "divider": false,
        "max_width": "1000px",
        "m_left": "200px"
      }
    },
    "1655746043bf1b0b52": {
      "type": "featured-logos",
      "blocks": {
        "5ea01457-6560-4ee6-9bb6-fd0f94e13d6d": {
          "type": "logo",
          "settings": {
            "image": "shopify:\/\/shop_images\/Selected_clients_2.png"
          }
        },
        "69f663c7-b548-4ad5-bef6-ae22d5888608": {
          "type": "logo",
          "settings": {
            "image": "shopify:\/\/shop_images\/Selected_clients_1.png"
          }
        },
        "5661f57a-087c-4a51-993b-e1d217775462": {
          "type": "logo",
          "settings": {
            "image": "shopify:\/\/shop_images\/Selected_clients.png"
          }
        },
        "16eac108-f7e5-4622-8ecd-8844188a165b": {
          "type": "logo",
          "settings": {
            "image": "shopify:\/\/shop_images\/image_2_360b1255-11db-424b-8dcc-0642c68c0415.png"
          }
        },
        "19e6f6a2-5703-4c73-8aac-58e13a11256d": {
          "type": "logo",
          "settings": {
            "image": "shopify:\/\/shop_images\/Selected_clients_2.png"
          }
        },
        "a25fc8fe-e07e-4d76-bc46-2616203e5361": {
          "type": "logo",
          "settings": {
            "image": "shopify:\/\/shop_images\/Selected_clients_1.png"
          }
        },
        "796bf4a0-5193-40b4-8c05-d23a727e3001": {
          "type": "logo",
          "settings": {
            "image": "shopify:\/\/shop_images\/Selected_clients.png"
          }
        },
        "54dfad47-dd28-4606-9ebd-fb451c4bd2d3": {
          "type": "logo",
          "settings": {
            "image": "shopify:\/\/shop_images\/image_2_360b1255-11db-424b-8dcc-0642c68c0415.png"
          }
        },
        "83b63e5a-8eef-42d0-a0eb-e2f66f2fb02e": {
          "type": "logo",
          "settings": {
            "image": "shopify:\/\/shop_images\/Selected_clients_2.png"
          }
        }
      },
      "block_order": [
        "5ea01457-6560-4ee6-9bb6-fd0f94e13d6d",
        "69f663c7-b548-4ad5-bef6-ae22d5888608",
        "5661f57a-087c-4a51-993b-e1d217775462",
        "16eac108-f7e5-4622-8ecd-8844188a165b",
        "19e6f6a2-5703-4c73-8aac-58e13a11256d",
        "a25fc8fe-e07e-4d76-bc46-2616203e5361",
        "796bf4a0-5193-40b4-8c05-d23a727e3001",
        "54dfad47-dd28-4606-9ebd-fb451c4bd2d3",
        "83b63e5a-8eef-42d0-a0eb-e2f66f2fb02e"
      ],
      "settings": {
        "section_bg": "",
        "ptop": 25,
        "pbottom": 130,
        "ptop_mob": 45,
        "pbottom_mob": 45,
        "num_rows": 3,
        "m_width": "1000px",
        "m_left": "100px",
        "speed": 20
      }
    },
    "165580145400713d99": {
      "type": "featured-bg-banner",
      "settings": {
        "image": "shopify:\/\/shop_images\/image_16.png",
        "section_bg": "",
        "section_height": "500px",
        "section_height_mob": "500px",
        "enable_bg_shape": false,
        "layout": "container",
        "text_align": "left",
        "enable_back": false,
        "back_link": "",
        "title": "",
        "subtitle": "",
        "content": "",
        "content_right": false,
        "btn_label": "",
        "btn_link": "",
        "color_title": "#ffffff",
        "color_subtitle": "#707061",
        "color_content": "#ffffff",
        "color_content_accent": "#cc9933",
        "color_button": "#ffffff"
      }
    },
    "1655745094b52bd8b3": {
      "type": "featured-text-blocks",
      "blocks": {
        "dd80ae66-e6c3-4ff6-86af-3ac6850acf0a": {
          "type": "block",
          "settings": {
            "title": "Responsiveness",
            "subtitle": "",
            "content": "<p>Our agency’s core value is to accompany your brand from beginning to end – and beyond. Our experienced team will have your back daily, finding the smartest design and development solutions, and continuously assisting with any bugs.<\/p>",
            "extra_content": "",
            "btn_label": "",
            "btn_link": ""
          }
        },
        "f555f46d-6ea5-4dfd-bb6f-5db12b78b8c7": {
          "type": "block",
          "settings": {
            "title": "Expertise",
            "subtitle": "",
            "content": "<p>Since 2015, the Medito team has been applying cutting-edge technology and creative design to the architecture of successful eCommerce websites. <\/p>",
            "extra_content": "",
            "btn_label": "",
            "btn_link": ""
          }
        },
        "0d762e70-7a97-40ac-b690-9629345c35ba": {
          "type": "block",
          "settings": {
            "title": "We know business",
            "subtitle": "",
            "content": "<p>Medito’s multi-talented team ensures that every aspect of your project is covered, so that together we can reach our common goal: your brand’s growth. <\/p>",
            "extra_content": "",
            "btn_label": "",
            "btn_link": ""
          }
        },
        "c2d34bb5-d024-42cc-b8e3-e3875c9b427b": {
          "type": "block",
          "settings": {
            "title": "Our culture",
            "subtitle": "",
            "content": "<p>We understand what it takes to run a business and the know-how to develop the best long-term solutions for yours.<\/p>",
            "extra_content": "",
            "btn_label": "",
            "btn_link": ""
          }
        }
      },
      "block_order": [
        "dd80ae66-e6c3-4ff6-86af-3ac6850acf0a",
        "f555f46d-6ea5-4dfd-bb6f-5db12b78b8c7",
        "0d762e70-7a97-40ac-b690-9629345c35ba",
        "c2d34bb5-d024-42cc-b8e3-e3875c9b427b"
      ],
      "settings": {
        "ptop": 150,
        "pbottom": 150,
        "ptop_mob": 90,
        "pbottom_mob": 100,
        "title": "Experts",
        "layout": "design-1",
        "btn_label": "",
        "btn_link": ""
      }
    },
    "1655802236a191d3fa": {
      "type": "faq",
      "blocks": {
        "165580223681b63007-0": {
          "type": "question",
          "settings": {
            "title": "Intendance",
            "text": "<p>Nous sommes dignes de confiance et responsables, tant en ce qui concerne les ressources de l'entreprise que celles du client, notamment la réputation, la marque, l'argent, les biens, le temps et le talent.<\/p>",
            "block_bg": "#000000",
            "color_number": "#cc9933",
            "color_title": "#ffffff",
            "color_text": "#838383"
          }
        },
        "165580223681b63007-1": {
          "type": "question",
          "settings": {
            "title": "Collaboration",
            "text": "<p>Nous travaillons en équipe, mettant nos divers talents, compétences et expériences individuels au service d'un objectif plus vaste. Nous faisons appel à d'autres personnes et les faisons participer au processus.<\/p>",
            "block_bg": "#000000",
            "color_number": "#cc9933",
            "color_title": "#ffffff",
            "color_text": "#838383"
          }
        },
        "1bf0e238-eb14-44ac-abcc-2f27e98894ce": {
          "type": "question",
          "settings": {
            "title": "Passion",
            "text": "<p>AuthenticitéNous sommes honnêtes et transparents. Nous apportons notre meilleur et notre plus grande contribution à notre travail et aux autres.<\/p>",
            "block_bg": "#000000",
            "color_number": "#cc9933",
            "color_title": "#ffffff",
            "color_text": "#838383"
          }
        },
        "577f201c-85e4-4ece-bc90-e1879f25cc81": {
          "type": "question",
          "settings": {
            "title": "Authenticité",
            "text": "<p>AuthenticitéNous sommes honnêtes et transparents. Nous apportons notre meilleur et notre plus grande contribution à notre travail et aux autres.<\/p>",
            "block_bg": "#000000",
            "color_number": "#cc9933",
            "color_title": "#ffffff",
            "color_text": "#838383"
          }
        }
      },
      "block_order": [
        "165580223681b63007-0",
        "165580223681b63007-1",
        "1bf0e238-eb14-44ac-abcc-2f27e98894ce",
        "577f201c-85e4-4ece-bc90-e1879f25cc81"
      ],
      "settings": {
        "section_bg": "#f2f3ee",
        "ptop": 130,
        "pbottom": 300,
        "ptop_mob": 95,
        "pbottom_mob": 100,
        "title": "Our values",
        "layout": "block-2"
      }
    },
    "165580224068067bce": {
      "type": "featured-cta",
      "settings": {
        "section_bg": "#e3e4dd",
        "ptop": 45,
        "pbottom": 70,
        "ptop_mob": 45,
        "pbottom_mob": 45,
        "enable_overlap": true,
        "title": "Get Started",
        "desc": "<p>Lorem ipsum dolor sit amet, consectetur adipiscing elit. Fusce eget semper sapien, eget pretium diam. Vivamus lorem tellus, mattis eget mauris in, auctor volutpat ipsum. <\/p>",
        "btn_label": "",
        "btn_link": "#"
      }
    }
  },
  "order": [
    "main",
    "1655733085e4c555e1",
    "165574505451f53d15",
    "1655746043bf1b0b52",
    "165580145400713d99",
    "1655745094b52bd8b3",
    "1655802236a191d3fa",
    "165580224068067bce"
  ]
}